<svg width="53" height="53" viewBox="0 0 53 53" version="1.1" xmlns="http://www.w3.org/2000/svg" xmlns:xlink="http://www.w3.org/1999/xlink">
<title>slack_icon</title>
<desc>Created using Figma</desc>
<g id="Canvas" transform="translate(198 -910)">
<g id="slack_icon">
<g id="Group-4">
<g id="Fill-1 Clipped">
<mask id="mask0_outline" mask-type="alpha">
<g id="path-1">
<use xlink:href="#path0_fill" transform="translate(-191.849 910.731)" fill="#FFFFFF"/>
</g>
</mask>
<g id="Fill-1" mask="url(#mask0_outline)">
<use xlink:href="#path1_fill" transform="translate(-173.208 910.731)" fill="#DFA22F"/>
</g>
</g>
<g id="Fill-3 Clipped">
<mask id="mask1_outline" mask-type="alpha">
<g id="path-1">
<use xlink:href="#path0_fill" transform="translate(-191.849 910.731)" fill="#FFFFFF"/>
</g>
</mask>
<g id="Fill-3" mask="url(#mask1_outline)">
<use xlink:href="#path2_fill" transform="translate(-191.849 916.792)" fill="#3CB187"/>
</g>
</g>
</g>
<g id="Fill-5">
<use xlink:href="#path3_fill" transform="translate(-191.943 935.542)" fill="#CE1E5B"/>
</g>
<g id="Fill-6">
<use xlink:href="#path4_fill" transform="translate(-184.037 943.359)" fill="#392538"/>
</g>
<g id="Group-10">
<g id="Fill-7">
<use xlink:href="#path5_fill" transform="translate(-165.396 937.296)" fill="#BB242A"/>
</g>
<g id="Fill-9">
<use xlink:href="#path6_fill" transform="translate(-198 916.887)" fill="#72C5CD"/>
</g>
</g>
<g id="Fill-11">
<use xlink:href="#path7_fill" transform="translate(-190.095 924.704)" fill="#238C73"/>
</g>
<g id="Fill-12">
<use xlink:href="#path8_fill" transform="translate(-171.455 918.64)" fill="#62803A"/>
</g>
</g>
</g>
<defs>
<path id="path0_fill" fill-rule="evenodd" d="M 0 52.2437L 39.9572 52.2437L 39.9572 0L 0 0L 0 52.2437Z"/>
<path id="path1_fill" d="M 9.07841 3.2186C 8.28445 0.772742 5.65973 -0.565687 3.21616 0.229313C 0.772155 1.02388 -0.565257 3.6506 0.229139 6.09603L 12.2594 43.1383C 13.0855 45.423 15.5518 46.707 17.9191 46.0252C 20.3884 45.3137 21.8937 42.6892 21.1057 40.2622C 21.0757 40.1696 9.07841 3.2186 9.07841 3.2186Z"/>
<path id="path2_fill" d="M 9.07884 3.2184C 8.28445 0.772968 5.65973 -0.56546 3.21616 0.229111C 0.772155 1.02368 -0.565257 3.6504 0.229139 6.09625L 12.2594 43.1385C 13.0855 45.4233 15.5518 46.7073 17.9191 46.025C 20.3884 45.314 21.8937 42.6894 21.1057 40.262C 21.0757 40.1698 9.07884 3.2184 9.07884 3.2184Z"/>
<path id="path3_fill" d="M 42.9567 9.08554C 45.4007 8.29097 46.7377 5.66425 45.9437 3.2184C 45.1497 0.772968 42.525 -0.56546 40.0814 0.229111L 3.06729 12.269C 0.784309 13.0953 -0.498716 15.5634 0.182624 17.9325C 0.893512 20.4037 3.51609 21.9101 5.94125 21.1215C 6.03375 21.0915 42.9567 9.08554 42.9567 9.08554Z"/>
<path id="path4_fill" d="M 2.87524 11.7309C 5.28456 10.9474 8.38977 9.93771 11.7219 8.85429C 10.9391 6.44314 9.93017 3.33514 8.84713 0L 0 2.87786L 2.87524 11.7309Z"/>
<path id="path5_fill" d="M 2.87567 11.7326C 6.22027 10.6453 9.32891 9.63429 11.7224 8.856C 10.9395 6.44486 9.93017 3.336 8.84713 0L 0 2.87786L 2.87567 11.7326Z"/>
<path id="path6_fill" d="M 42.9569 9.08554C 45.4005 8.29097 46.7379 5.66425 45.9439 3.2184C 45.1499 0.772968 42.5252 -0.56546 40.0812 0.229111L 3.06705 12.269C 0.784075 13.0953 -0.49895 15.5634 0.182817 17.9325C 0.893277 20.4037 3.51586 21.9101 5.94144 21.1215C 6.03351 21.0915 42.9569 9.08554 42.9569 9.08554Z"/>
<path id="path7_fill" d="M 2.87567 11.7313C 5.28498 10.9479 8.39105 9.93771 11.7237 8.85429C 10.6372 5.50671 9.62697 2.39571 8.84928 0L 0 2.87829L 2.87567 11.7313Z"/>
<path id="path8_fill" d="M 2.87567 11.7334C 6.22113 10.6457 9.3302 9.63471 11.7241 8.856C 10.6372 5.508 9.62697 2.39614 8.84885 0L 0 2.87829L 2.87567 11.7334Z"/>
</defs>
</svg>
